^C:\USERS\RPINNINT\DOCUMENTS\VISUAL STUDIO 2013\PROJECTS\PROPGETSET\PROPGETSET\DEBUG\PROPGETSET.OBJ|C:\USERS\RPINNINT\DOCUMENTS\VISUAL STUDIO 2013\PROJECTS\PROPGETSET\PROPGETSET\DEBUG\PROPGETSET.RES|C:\USERS\RPINNINT\DOCUMENTS\VISUAL STUDIO 2013\PROJECTS\PROPGETSET\PROPGETSET\DEBUG\PROPGETSETDLG.OBJ|C:\USERS\RPINNINT\DOCUMENTS\VISUAL STUDIO 2013\PROJECTS\PROPGETSET\PROPGETSET\DEBUG\STDAFX.OBJ
/OUT:"C:\USERS\RPINNINT\DOCUMENTS\VISUAL STUDIO 2013\PROJECTS\PROPGETSET\DEBUG\PROPGETSET.EXE" /INCREMENTAL /NOLOGO /MANIFEST /MANIFESTUAC:"level='asInvoker' uiAccess='false'" /manifest:embed /manifestinput:"C:\Program Files (x86)\Microsoft Visual Studio 12.0\VC\Include\Manifest\dpiaware.manifest" /DEBUG /PDB:"C:\USERS\RPINNINT\DOCUMENTS\VISUAL STUDIO 2013\PROJECTS\PROPGETSET\DEBUG\PROPGETSET.PDB" /SUBSYSTEM:WINDOWS /TLBID:1 /ENTRY:"wWinMainCRTStartup" /DYNAMICBASE /NXCOMPAT /IMPLIB:"C:\USERS\RPINNINT\DOCUMENTS\VISUAL STUDIO 2013\PROJECTS\PROPGETSET\DEBUG\PROPGETSET.LIB" /MACHINE:X86 DEBUG\PROPGETSET.RESDEBUG\PROPGETSET.OBJDEBUG\PROPGETSETDLG.OBJDEBUG\STDAFX.OBJ
^C:\USERS\RPINNINT\DOWNLOADS\PROPGETSET\PROPGETSET\DEBUG\PROPGETSET.OBJ|C:\USERS\RPINNINT\DOWNLOADS\PROPGETSET\PROPGETSET\DEBUG\PROPGETSET.RES|C:\USERS\RPINNINT\DOWNLOADS\PROPGETSET\PROPGETSET\DEBUG\PROPGETSETDLG.OBJ|C:\USERS\RPINNINT\DOWNLOADS\PROPGETSET\PROPGETSET\DEBUG\STDAFX.OBJ
/OUT:"C:\USERS\RPINNINT\DOWNLOADS\PROPGETSET\DEBUG\PROPGETSET.EXE" /INCREMENTAL /NOLOGO /MANIFEST /MANIFESTUAC:"level='asInvoker' uiAccess='false'" /manifest:embed /manifestinput:"C:\Program Files (x86)\Microsoft Visual Studio 12.0\VC\Include\Manifest\dpiaware.manifest" /DEBUG /PDB:"C:\USERS\RPINNINT\DOWNLOADS\PROPGETSET\DEBUG\PROPGETSET.PDB" /SUBSYSTEM:WINDOWS /TLBID:1 /ENTRY:"wWinMainCRTStartup" /DYNAMICBASE /NXCOMPAT /IMPLIB:"C:\USERS\RPINNINT\DOWNLOADS\PROPGETSET\DEBUG\PROPGETSET.LIB" /MACHINE:X86 DEBUG\PROPGETSET.RESDEBUG\PROPGETSET.OBJDEBUG\PROPGETSETDLG.OBJDEBUG\STDAFX.OBJ
^\\IN-VEROCVDEV3\SANDEEP_SHARED\LAHARI\PROPGETSET\PROPGETSET\DEBUG\PROPGETSET.OBJ|\\IN-VEROCVDEV3\SANDEEP_SHARED\LAHARI\PROPGETSET\PROPGETSET\DEBUG\PROPGETSET.RES|\\IN-VEROCVDEV3\SANDEEP_SHARED\LAHARI\PROPGETSET\PROPGETSET\DEBUG\PROPGETSETDLG.OBJ|\\IN-VEROCVDEV3\SANDEEP_SHARED\LAHARI\PROPGETSET\PROPGETSET\DEBUG\STDAFX.OBJ
/OUT:"\\IN-VEROCVDEV3\SANDEEP_SHARED\LAHARI\PROPGETSET\DEBUG\PROPGETSET.EXE" /INCREMENTAL /NOLOGO /MANIFEST /MANIFESTUAC:"level='asInvoker' uiAccess='false'" /manifest:embed /manifestinput:"C:\Program Files (x86)\Microsoft Visual Studio 12.0\VC\Include\Manifest\dpiaware.manifest" /DEBUG /PDB:"\\IN-VEROCVDEV3\SANDEEP_SHARED\LAHARI\PROPGETSET\DEBUG\PROPGETSET.PDB" /SUBSYSTEM:WINDOWS /TLBID:1 /ENTRY:"wWinMainCRTStartup" /DYNAMICBASE /NXCOMPAT /IMPLIB:"\\IN-VEROCVDEV3\SANDEEP_SHARED\LAHARI\PROPGETSET\DEBUG\PROPGETSET.LIB" /MACHINE:X86 DEBUG\PROPGETSET.RESDEBUG\PROPGETSET.OBJDEBUG\PROPGETSETDLG.OBJDEBUG\STDAFX.OBJ
^C:\SAMPLES\PROPGETSET\PROPGETSET\DEBUG\PROPGETSET.OBJ|C:\SAMPLES\PROPGETSET\PROPGETSET\DEBUG\PROPGETSET.RES|C:\SAMPLES\PROPGETSET\PROPGETSET\DEBUG\PROPGETSETDLG.OBJ|C:\SAMPLES\PROPGETSET\PROPGETSET\DEBUG\STDAFX.OBJ
/OUT:"C:\SAMPLES\PROPGETSET\DEBUG\PROPGETSET.EXE" /INCREMENTAL /NOLOGO /MANIFEST /MANIFESTUAC:"level='asInvoker' uiAccess='false'" /manifest:embed /manifestinput:"C:\Program Files (x86)\Microsoft Visual Studio 12.0\VC\Include\Manifest\dpiaware.manifest" /DEBUG /PDB:"C:\SAMPLES\PROPGETSET\DEBUG\PROPGETSET.PDB" /SUBSYSTEM:WINDOWS /TLBID:1 /ENTRY:"wWinMainCRTStartup" /DYNAMICBASE /NXCOMPAT /IMPLIB:"C:\SAMPLES\PROPGETSET\DEBUG\PROPGETSET.LIB" /MACHINE:X86 DEBUG\PROPGETSET.RESDEBUG\PROPGETSET.OBJDEBUG\PROPGETSETDLG.OBJDEBUG\STDAFX.OBJ
