^\\IN-VEROCVDEV3\SANDEEP_SHARED\LAHARI\PROPGETSET\PROPGETSET\PROPGETSET.RC
\\IN-VEROCVDEV3\SANDEEP_SHARED\LAHARI\PROPGETSET\PROPGETSET\DEBUG\PROPGETSET.RES
^C:\SAMPLES\PROPGETSET\PROPGETSET\PROPGETSET.RC
C:\SAMPLES\PROPGETSET\PROPGETSET\DEBUG\PROPGETSET.RES
